<?xml version="1.0" encoding="UTF-8" standalone="no"?>
<!DOCTYPE svg PUBLIC "-//W3C//DTD SVG 1.1//EN"
 "http://www.w3.org/Graphics/SVG/1.1/DTD/svg11.dtd">
<!-- Generated by graphviz version 2.38.0 (20140413.2041)
 -->
<!-- Title: controllers_diagram Pages: 1 -->
<svg width="938pt" height="976pt"
 viewBox="0.00 0.00 937.50 976.00" xmlns="http://www.w3.org/2000/svg" xmlns:xlink="http://www.w3.org/1999/xlink">
<g id="graph0" class="graph" transform="scale(1 1) rotate(0) translate(412.5 546.5)">
<title>controllers_diagram</title>
<polygon fill="none" stroke="none" points="-412.5,429.5 -412.5,-546.5 525,-546.5 525,429.5 -412.5,429.5"/>
<!-- _diagram_info -->
<g id="node1" class="node"><title>_diagram_info</title>
<text text-anchor="start" x="8" y="140.4" font-family="Times,serif" font-size="13.00">Controllers diagram</text>
<text text-anchor="start" x="8" y="154.4" font-family="Times,serif" font-size="13.00">Date: Mar 29 2016 &#45; 01:48</text>
<text text-anchor="start" x="8" y="168.4" font-family="Times,serif" font-size="13.00">Migration version: 20160328183457</text>
<text text-anchor="start" x="8" y="182.4" font-family="Times,serif" font-size="13.00">Generated by RailRoady 1.4.2</text>
<text text-anchor="start" x="8" y="196.4" font-family="Times,serif" font-size="13.00">http://railroady.prestonlee.com</text>
</g>
<!-- DevicesController -->
<g id="node2" class="node"><title>DevicesController</title>
<path fill="none" stroke="black" d="M-22,-323C-22,-323 70,-323 70,-323 76,-323 82,-329 82,-335 82,-335 82,-479 82,-479 82,-485 76,-491 70,-491 70,-491 -22,-491 -22,-491 -28,-491 -34,-485 -34,-479 -34,-479 -34,-335 -34,-335 -34,-329 -28,-323 -22,-323"/>
<text text-anchor="middle" x="24" y="-475.8" font-family="Times,serif" font-size="14.00">DevicesController</text>
<polyline fill="none" stroke="black" points="-34,-468 82,-468 "/>
<text text-anchor="start" x="-26" y="-452.8" font-family="Times,serif" font-size="14.00">create</text>
<text text-anchor="start" x="-26" y="-437.8" font-family="Times,serif" font-size="14.00">destroy</text>
<text text-anchor="start" x="-26" y="-422.8" font-family="Times,serif" font-size="14.00">index</text>
<text text-anchor="start" x="-26" y="-407.8" font-family="Times,serif" font-size="14.00">show</text>
<text text-anchor="start" x="-26" y="-392.8" font-family="Times,serif" font-size="14.00">update</text>
<polyline fill="none" stroke="black" points="-34,-385 82,-385 "/>
<polyline fill="none" stroke="black" points="-34,-361 82,-361 "/>
<text text-anchor="start" x="-26" y="-345.8" font-family="Times,serif" font-size="14.00">device_params</text>
<text text-anchor="start" x="-26" y="-330.8" font-family="Times,serif" font-size="14.00">set_device</text>
</g>
<!-- RoomtypesController -->
<g id="node3" class="node"><title>RoomtypesController</title>
<path fill="none" stroke="black" d="M-243,204C-243,204 -133,204 -133,204 -127,204 -121,198 -121,192 -121,192 -121,48 -121,48 -121,42 -127,36 -133,36 -133,36 -243,36 -243,36 -249,36 -255,42 -255,48 -255,48 -255,192 -255,192 -255,198 -249,204 -243,204"/>
<text text-anchor="middle" x="-188" y="51.2" font-family="Times,serif" font-size="14.00">RoomtypesController</text>
<polyline fill="none" stroke="black" points="-255,59 -121,59 "/>
<text text-anchor="start" x="-247" y="74.2" font-family="Times,serif" font-size="14.00">create</text>
<text text-anchor="start" x="-247" y="89.2" font-family="Times,serif" font-size="14.00">destroy</text>
<text text-anchor="start" x="-247" y="104.2" font-family="Times,serif" font-size="14.00">index</text>
<text text-anchor="start" x="-247" y="119.2" font-family="Times,serif" font-size="14.00">show</text>
<text text-anchor="start" x="-247" y="134.2" font-family="Times,serif" font-size="14.00">update</text>
<polyline fill="none" stroke="black" points="-255,142 -121,142 "/>
<polyline fill="none" stroke="black" points="-255,166 -121,166 "/>
<text text-anchor="start" x="-247" y="181.2" font-family="Times,serif" font-size="14.00">roomtype_params</text>
<text text-anchor="start" x="-247" y="196.2" font-family="Times,serif" font-size="14.00">set_roomtype</text>
</g>
<!-- ApplicationController -->
<g id="node4" class="node"><title>ApplicationController</title>
<path fill="none" stroke="black" d="M12,322.5C12,322.5 170,322.5 170,322.5 176,322.5 182,316.5 182,310.5 182,310.5 182,241.5 182,241.5 182,235.5 176,229.5 170,229.5 170,229.5 12,229.5 12,229.5 6,229.5 0,235.5 0,241.5 0,241.5 0,310.5 0,310.5 0,316.5 6,322.5 12,322.5"/>
<text text-anchor="middle" x="91" y="244.7" font-family="Times,serif" font-size="14.00">ApplicationController</text>
<polyline fill="none" stroke="black" points="0,252.5 182,252.5 "/>
<text text-anchor="start" x="8" y="267.7" font-family="Times,serif" font-size="14.00">token</text>
<polyline fill="none" stroke="black" points="0,275.5 182,275.5 "/>
<polyline fill="none" stroke="black" points="0,299.5 182,299.5 "/>
<text text-anchor="start" x="8" y="314.7" font-family="Times,serif" font-size="14.00">authenticate_user_from_token</text>
</g>
<!-- GuestsController -->
<g id="node5" class="node"><title>GuestsController</title>
<path fill="none" stroke="black" d="M352.5,-340C352.5,-340 437.5,-340 437.5,-340 443.5,-340 449.5,-346 449.5,-352 449.5,-352 449.5,-496 449.5,-496 449.5,-502 443.5,-508 437.5,-508 437.5,-508 352.5,-508 352.5,-508 346.5,-508 340.5,-502 340.5,-496 340.5,-496 340.5,-352 340.5,-352 340.5,-346 346.5,-340 352.5,-340"/>
<text text-anchor="middle" x="395" y="-492.8" font-family="Times,serif" font-size="14.00">GuestsController</text>
<polyline fill="none" stroke="black" points="340.5,-485 449.5,-485 "/>
<text text-anchor="start" x="348.5" y="-469.8" font-family="Times,serif" font-size="14.00">create</text>
<text text-anchor="start" x="348.5" y="-454.8" font-family="Times,serif" font-size="14.00">destroy</text>
<text text-anchor="start" x="348.5" y="-439.8" font-family="Times,serif" font-size="14.00">index</text>
<text text-anchor="start" x="348.5" y="-424.8" font-family="Times,serif" font-size="14.00">show</text>
<text text-anchor="start" x="348.5" y="-409.8" font-family="Times,serif" font-size="14.00">update</text>
<polyline fill="none" stroke="black" points="340.5,-402 449.5,-402 "/>
<polyline fill="none" stroke="black" points="340.5,-378 449.5,-378 "/>
<text text-anchor="start" x="348.5" y="-362.8" font-family="Times,serif" font-size="14.00">guest_params</text>
<text text-anchor="start" x="348.5" y="-347.8" font-family="Times,serif" font-size="14.00">set_guest</text>
</g>
<!-- GuestdetailsController -->
<g id="node6" class="node"><title>GuestdetailsController</title>
<path fill="none" stroke="black" d="M-72.5,85C-72.5,85 42.5,85 42.5,85 48.5,85 54.5,79 54.5,73 54.5,73 54.5,-71 54.5,-71 54.5,-77 48.5,-83 42.5,-83 42.5,-83 -72.5,-83 -72.5,-83 -78.5,-83 -84.5,-77 -84.5,-71 -84.5,-71 -84.5,73 -84.5,73 -84.5,79 -78.5,85 -72.5,85"/>
<text text-anchor="middle" x="-15" y="-67.8" font-family="Times,serif" font-size="14.00">GuestdetailsController</text>
<polyline fill="none" stroke="black" points="-84.5,-60 54.5,-60 "/>
<text text-anchor="start" x="-76.5" y="-44.8" font-family="Times,serif" font-size="14.00">create</text>
<text text-anchor="start" x="-76.5" y="-29.8" font-family="Times,serif" font-size="14.00">destroy</text>
<text text-anchor="start" x="-76.5" y="-14.8" font-family="Times,serif" font-size="14.00">index</text>
<text text-anchor="start" x="-76.5" y="0.2" font-family="Times,serif" font-size="14.00">show</text>
<text text-anchor="start" x="-76.5" y="15.2" font-family="Times,serif" font-size="14.00">update</text>
<polyline fill="none" stroke="black" points="-84.5,23 54.5,23 "/>
<polyline fill="none" stroke="black" points="-84.5,47 54.5,47 "/>
<text text-anchor="start" x="-76.5" y="62.2" font-family="Times,serif" font-size="14.00">guestdetail_params</text>
<text text-anchor="start" x="-76.5" y="77.2" font-family="Times,serif" font-size="14.00">set_guestdetail</text>
</g>
<!-- ServiceordersController -->
<g id="node7" class="node"><title>ServiceordersController</title>
<path fill="none" stroke="black" d="M97,85C97,85 219,85 219,85 225,85 231,79 231,73 231,73 231,-71 231,-71 231,-77 225,-83 219,-83 219,-83 97,-83 97,-83 91,-83 85,-77 85,-71 85,-71 85,73 85,73 85,79 91,85 97,85"/>
<text text-anchor="middle" x="158" y="-67.8" font-family="Times,serif" font-size="14.00">ServiceordersController</text>
<polyline fill="none" stroke="black" points="85,-60 231,-60 "/>
<text text-anchor="start" x="93" y="-44.8" font-family="Times,serif" font-size="14.00">create</text>
<text text-anchor="start" x="93" y="-29.8" font-family="Times,serif" font-size="14.00">destroy</text>
<text text-anchor="start" x="93" y="-14.8" font-family="Times,serif" font-size="14.00">index</text>
<text text-anchor="start" x="93" y="0.2" font-family="Times,serif" font-size="14.00">show</text>
<text text-anchor="start" x="93" y="15.2" font-family="Times,serif" font-size="14.00">update</text>
<polyline fill="none" stroke="black" points="85,23 231,23 "/>
<polyline fill="none" stroke="black" points="85,47 231,47 "/>
<text text-anchor="start" x="93" y="62.2" font-family="Times,serif" font-size="14.00">serviceorder_params</text>
<text text-anchor="start" x="93" y="77.2" font-family="Times,serif" font-size="14.00">set_serviceorder</text>
</g>
<!-- RfidcardsController -->
<g id="node8" class="node"><title>RfidcardsController</title>
<path fill="none" stroke="black" d="M283.5,272C283.5,272 384.5,272 384.5,272 390.5,272 396.5,266 396.5,260 396.5,260 396.5,116 396.5,116 396.5,110 390.5,104 384.5,104 384.5,104 283.5,104 283.5,104 277.5,104 271.5,110 271.5,116 271.5,116 271.5,260 271.5,260 271.5,266 277.5,272 283.5,272"/>
<text text-anchor="middle" x="334" y="119.2" font-family="Times,serif" font-size="14.00">RfidcardsController</text>
<polyline fill="none" stroke="black" points="271.5,127 396.5,127 "/>
<text text-anchor="start" x="279.5" y="142.2" font-family="Times,serif" font-size="14.00">create</text>
<text text-anchor="start" x="279.5" y="157.2" font-family="Times,serif" font-size="14.00">destroy</text>
<text text-anchor="start" x="279.5" y="172.2" font-family="Times,serif" font-size="14.00">index</text>
<text text-anchor="start" x="279.5" y="187.2" font-family="Times,serif" font-size="14.00">show</text>
<text text-anchor="start" x="279.5" y="202.2" font-family="Times,serif" font-size="14.00">update</text>
<polyline fill="none" stroke="black" points="271.5,210 396.5,210 "/>
<polyline fill="none" stroke="black" points="271.5,234 396.5,234 "/>
<text text-anchor="start" x="279.5" y="249.2" font-family="Times,serif" font-size="14.00">rfidcard_params</text>
<text text-anchor="start" x="279.5" y="264.2" font-family="Times,serif" font-size="14.00">set_rfidcard</text>
</g>
<!-- DepartmentsController -->
<g id="node9" class="node"><title>DepartmentsController</title>
<path fill="none" stroke="black" d="M131,-119C131,-119 249,-119 249,-119 255,-119 261,-125 261,-131 261,-131 261,-275 261,-275 261,-281 255,-287 249,-287 249,-287 131,-287 131,-287 125,-287 119,-281 119,-275 119,-275 119,-131 119,-131 119,-125 125,-119 131,-119"/>
<text text-anchor="middle" x="190" y="-271.8" font-family="Times,serif" font-size="14.00">DepartmentsController</text>
<polyline fill="none" stroke="black" points="119,-264 261,-264 "/>
<text text-anchor="start" x="127" y="-248.8" font-family="Times,serif" font-size="14.00">create</text>
<text text-anchor="start" x="127" y="-233.8" font-family="Times,serif" font-size="14.00">destroy</text>
<text text-anchor="start" x="127" y="-218.8" font-family="Times,serif" font-size="14.00">index</text>
<text text-anchor="start" x="127" y="-203.8" font-family="Times,serif" font-size="14.00">show</text>
<text text-anchor="start" x="127" y="-188.8" font-family="Times,serif" font-size="14.00">update</text>
<polyline fill="none" stroke="black" points="119,-181 261,-181 "/>
<polyline fill="none" stroke="black" points="119,-157 261,-157 "/>
<text text-anchor="start" x="127" y="-141.8" font-family="Times,serif" font-size="14.00">department_params</text>
<text text-anchor="start" x="127" y="-126.8" font-family="Times,serif" font-size="14.00">set_department</text>
</g>
<!-- CheckinoutsController -->
<g id="node10" class="node"><title>CheckinoutsController</title>
<path fill="none" stroke="black" d="M-39,-119C-39,-119 77,-119 77,-119 83,-119 89,-125 89,-131 89,-131 89,-275 89,-275 89,-281 83,-287 77,-287 77,-287 -39,-287 -39,-287 -45,-287 -51,-281 -51,-275 -51,-275 -51,-131 -51,-131 -51,-125 -45,-119 -39,-119"/>
<text text-anchor="middle" x="19" y="-271.8" font-family="Times,serif" font-size="14.00">CheckinoutsController</text>
<polyline fill="none" stroke="black" points="-51,-264 89,-264 "/>
<text text-anchor="start" x="-43" y="-248.8" font-family="Times,serif" font-size="14.00">create</text>
<text text-anchor="start" x="-43" y="-233.8" font-family="Times,serif" font-size="14.00">destroy</text>
<text text-anchor="start" x="-43" y="-218.8" font-family="Times,serif" font-size="14.00">index</text>
<text text-anchor="start" x="-43" y="-203.8" font-family="Times,serif" font-size="14.00">show</text>
<text text-anchor="start" x="-43" y="-188.8" font-family="Times,serif" font-size="14.00">update</text>
<polyline fill="none" stroke="black" points="-51,-181 89,-181 "/>
<polyline fill="none" stroke="black" points="-51,-157 89,-157 "/>
<text text-anchor="start" x="-43" y="-141.8" font-family="Times,serif" font-size="14.00">checkinout_params</text>
<text text-anchor="start" x="-43" y="-126.8" font-family="Times,serif" font-size="14.00">set_checkinout</text>
</g>
<!-- EmployeesController -->
<g id="node11" class="node"><title>EmployeesController</title>
<path fill="none" stroke="black" d="M301.5,68C301.5,68 410.5,68 410.5,68 416.5,68 422.5,62 422.5,56 422.5,56 422.5,-88 422.5,-88 422.5,-94 416.5,-100 410.5,-100 410.5,-100 301.5,-100 301.5,-100 295.5,-100 289.5,-94 289.5,-88 289.5,-88 289.5,56 289.5,56 289.5,62 295.5,68 301.5,68"/>
<text text-anchor="middle" x="356" y="-84.8" font-family="Times,serif" font-size="14.00">EmployeesController</text>
<polyline fill="none" stroke="black" points="289.5,-77 422.5,-77 "/>
<text text-anchor="start" x="297.5" y="-61.8" font-family="Times,serif" font-size="14.00">create</text>
<text text-anchor="start" x="297.5" y="-46.8" font-family="Times,serif" font-size="14.00">destroy</text>
<text text-anchor="start" x="297.5" y="-31.8" font-family="Times,serif" font-size="14.00">index</text>
<text text-anchor="start" x="297.5" y="-16.8" font-family="Times,serif" font-size="14.00">show</text>
<text text-anchor="start" x="297.5" y="-1.8" font-family="Times,serif" font-size="14.00">update</text>
<polyline fill="none" stroke="black" points="289.5,6 422.5,6 "/>
<polyline fill="none" stroke="black" points="289.5,30 422.5,30 "/>
<text text-anchor="start" x="297.5" y="45.2" font-family="Times,serif" font-size="14.00">employee_params</text>
<text text-anchor="start" x="297.5" y="60.2" font-family="Times,serif" font-size="14.00">set_employee</text>
</g>
<!-- PermissionsController -->
<g id="node12" class="node"><title>PermissionsController</title>
<path fill="none" stroke="black" d="M-209,-221C-209,-221 -95,-221 -95,-221 -89,-221 -83,-227 -83,-233 -83,-233 -83,-377 -83,-377 -83,-383 -89,-389 -95,-389 -95,-389 -209,-389 -209,-389 -215,-389 -221,-383 -221,-377 -221,-377 -221,-233 -221,-233 -221,-227 -215,-221 -209,-221"/>
<text text-anchor="middle" x="-152" y="-373.8" font-family="Times,serif" font-size="14.00">PermissionsController</text>
<polyline fill="none" stroke="black" points="-221,-366 -83,-366 "/>
<text text-anchor="start" x="-213" y="-350.8" font-family="Times,serif" font-size="14.00">create</text>
<text text-anchor="start" x="-213" y="-335.8" font-family="Times,serif" font-size="14.00">destroy</text>
<text text-anchor="start" x="-213" y="-320.8" font-family="Times,serif" font-size="14.00">index</text>
<text text-anchor="start" x="-213" y="-305.8" font-family="Times,serif" font-size="14.00">show</text>
<text text-anchor="start" x="-213" y="-290.8" font-family="Times,serif" font-size="14.00">update</text>
<polyline fill="none" stroke="black" points="-221,-283 -83,-283 "/>
<polyline fill="none" stroke="black" points="-221,-259 -83,-259 "/>
<text text-anchor="start" x="-213" y="-243.8" font-family="Times,serif" font-size="14.00">permission_params</text>
<text text-anchor="start" x="-213" y="-228.8" font-family="Times,serif" font-size="14.00">set_permission</text>
</g>
<!-- BookingsController -->
<g id="node13" class="node"><title>BookingsController</title>
<path fill="none" stroke="black" d="M301,-136C301,-136 401,-136 401,-136 407,-136 413,-142 413,-148 413,-148 413,-292 413,-292 413,-298 407,-304 401,-304 401,-304 301,-304 301,-304 295,-304 289,-298 289,-292 289,-292 289,-148 289,-148 289,-142 295,-136 301,-136"/>
<text text-anchor="middle" x="351" y="-288.8" font-family="Times,serif" font-size="14.00">BookingsController</text>
<polyline fill="none" stroke="black" points="289,-281 413,-281 "/>
<text text-anchor="start" x="297" y="-265.8" font-family="Times,serif" font-size="14.00">create</text>
<text text-anchor="start" x="297" y="-250.8" font-family="Times,serif" font-size="14.00">destroy</text>
<text text-anchor="start" x="297" y="-235.8" font-family="Times,serif" font-size="14.00">index</text>
<text text-anchor="start" x="297" y="-220.8" font-family="Times,serif" font-size="14.00">show</text>
<text text-anchor="start" x="297" y="-205.8" font-family="Times,serif" font-size="14.00">update</text>
<polyline fill="none" stroke="black" points="289,-198 413,-198 "/>
<polyline fill="none" stroke="black" points="289,-174 413,-174 "/>
<text text-anchor="start" x="297" y="-158.8" font-family="Times,serif" font-size="14.00">booking_params</text>
<text text-anchor="start" x="297" y="-143.8" font-family="Times,serif" font-size="14.00">set_booking</text>
</g>
<!-- BillingsController -->
<g id="node14" class="node"><title>BillingsController</title>
<path fill="none" stroke="black" d="M-362.5,-374C-362.5,-374 -271.5,-374 -271.5,-374 -265.5,-374 -259.5,-380 -259.5,-386 -259.5,-386 -259.5,-530 -259.5,-530 -259.5,-536 -265.5,-542 -271.5,-542 -271.5,-542 -362.5,-542 -362.5,-542 -368.5,-542 -374.5,-536 -374.5,-530 -374.5,-530 -374.5,-386 -374.5,-386 -374.5,-380 -368.5,-374 -362.5,-374"/>
<text text-anchor="middle" x="-317" y="-526.8" font-family="Times,serif" font-size="14.00">BillingsController</text>
<polyline fill="none" stroke="black" points="-374.5,-519 -259.5,-519 "/>
<text text-anchor="start" x="-366.5" y="-503.8" font-family="Times,serif" font-size="14.00">create</text>
<text text-anchor="start" x="-366.5" y="-488.8" font-family="Times,serif" font-size="14.00">destroy</text>
<text text-anchor="start" x="-366.5" y="-473.8" font-family="Times,serif" font-size="14.00">index</text>
<text text-anchor="start" x="-366.5" y="-458.8" font-family="Times,serif" font-size="14.00">show</text>
<text text-anchor="start" x="-366.5" y="-443.8" font-family="Times,serif" font-size="14.00">update</text>
<polyline fill="none" stroke="black" points="-374.5,-436 -259.5,-436 "/>
<polyline fill="none" stroke="black" points="-374.5,-412 -259.5,-412 "/>
<text text-anchor="start" x="-366.5" y="-396.8" font-family="Times,serif" font-size="14.00">billing_params</text>
<text text-anchor="start" x="-366.5" y="-381.8" font-family="Times,serif" font-size="14.00">set_billing</text>
</g>
<!-- FloorsController -->
<g id="node15" class="node"><title>FloorsController</title>
<path fill="none" stroke="black" d="M-379.5,204C-379.5,204 -296.5,204 -296.5,204 -290.5,204 -284.5,198 -284.5,192 -284.5,192 -284.5,48 -284.5,48 -284.5,42 -290.5,36 -296.5,36 -296.5,36 -379.5,36 -379.5,36 -385.5,36 -391.5,42 -391.5,48 -391.5,48 -391.5,192 -391.5,192 -391.5,198 -385.5,204 -379.5,204"/>
<text text-anchor="middle" x="-338" y="51.2" font-family="Times,serif" font-size="14.00">FloorsController</text>
<polyline fill="none" stroke="black" points="-391.5,59 -284.5,59 "/>
<text text-anchor="start" x="-383.5" y="74.2" font-family="Times,serif" font-size="14.00">create</text>
<text text-anchor="start" x="-383.5" y="89.2" font-family="Times,serif" font-size="14.00">destroy</text>
<text text-anchor="start" x="-383.5" y="104.2" font-family="Times,serif" font-size="14.00">index</text>
<text text-anchor="start" x="-383.5" y="119.2" font-family="Times,serif" font-size="14.00">show</text>
<text text-anchor="start" x="-383.5" y="134.2" font-family="Times,serif" font-size="14.00">update</text>
<polyline fill="none" stroke="black" points="-391.5,142 -284.5,142 "/>
<polyline fill="none" stroke="black" points="-391.5,166 -284.5,166 "/>
<text text-anchor="start" x="-383.5" y="181.2" font-family="Times,serif" font-size="14.00">floor_params</text>
<text text-anchor="start" x="-383.5" y="196.2" font-family="Times,serif" font-size="14.00">set_floor</text>
</g>
<!-- RoomsController -->
<g id="node16" class="node"><title>RoomsController</title>
<path fill="none" stroke="black" d="M-396.5,-0C-396.5,-0 -309.5,-0 -309.5,-0 -303.5,-0 -297.5,-6 -297.5,-12 -297.5,-12 -297.5,-156 -297.5,-156 -297.5,-162 -303.5,-168 -309.5,-168 -309.5,-168 -396.5,-168 -396.5,-168 -402.5,-168 -408.5,-162 -408.5,-156 -408.5,-156 -408.5,-12 -408.5,-12 -408.5,-6 -402.5,-0 -396.5,-0"/>
<text text-anchor="middle" x="-353" y="-152.8" font-family="Times,serif" font-size="14.00">RoomsController</text>
<polyline fill="none" stroke="black" points="-408.5,-145 -297.5,-145 "/>
<text text-anchor="start" x="-400.5" y="-129.8" font-family="Times,serif" font-size="14.00">create</text>
<text text-anchor="start" x="-400.5" y="-114.8" font-family="Times,serif" font-size="14.00">destroy</text>
<text text-anchor="start" x="-400.5" y="-99.8" font-family="Times,serif" font-size="14.00">index</text>
<text text-anchor="start" x="-400.5" y="-84.8" font-family="Times,serif" font-size="14.00">show</text>
<text text-anchor="start" x="-400.5" y="-69.8" font-family="Times,serif" font-size="14.00">update</text>
<polyline fill="none" stroke="black" points="-408.5,-62 -297.5,-62 "/>
<polyline fill="none" stroke="black" points="-408.5,-38 -297.5,-38 "/>
<text text-anchor="start" x="-400.5" y="-22.8" font-family="Times,serif" font-size="14.00">room_params</text>
<text text-anchor="start" x="-400.5" y="-7.8" font-family="Times,serif" font-size="14.00">set_room</text>
</g>
<!-- ServicesController -->
<g id="node17" class="node"><title>ServicesController</title>
<path fill="none" stroke="black" d="M-396,408C-396,408 -302,408 -302,408 -296,408 -290,402 -290,396 -290,396 -290,252 -290,252 -290,246 -296,240 -302,240 -302,240 -396,240 -396,240 -402,240 -408,246 -408,252 -408,252 -408,396 -408,396 -408,402 -402,408 -396,408"/>
<text text-anchor="middle" x="-349" y="255.2" font-family="Times,serif" font-size="14.00">ServicesController</text>
<polyline fill="none" stroke="black" points="-408,263 -290,263 "/>
<text text-anchor="start" x="-400" y="278.2" font-family="Times,serif" font-size="14.00">create</text>
<text text-anchor="start" x="-400" y="293.2" font-family="Times,serif" font-size="14.00">destroy</text>
<text text-anchor="start" x="-400" y="308.2" font-family="Times,serif" font-size="14.00">index</text>
<text text-anchor="start" x="-400" y="323.2" font-family="Times,serif" font-size="14.00">show</text>
<text text-anchor="start" x="-400" y="338.2" font-family="Times,serif" font-size="14.00">update</text>
<polyline fill="none" stroke="black" points="-408,346 -290,346 "/>
<polyline fill="none" stroke="black" points="-408,370 -290,370 "/>
<text text-anchor="start" x="-400" y="385.2" font-family="Times,serif" font-size="14.00">service_params</text>
<text text-anchor="start" x="-400" y="400.2" font-family="Times,serif" font-size="14.00">set_service</text>
</g>
<!-- FeaturesController -->
<g id="node18" class="node"><title>FeaturesController</title>
<path fill="none" stroke="black" d="M-243,408C-243,408 -149,408 -149,408 -143,408 -137,402 -137,396 -137,396 -137,252 -137,252 -137,246 -143,240 -149,240 -149,240 -243,240 -243,240 -249,240 -255,246 -255,252 -255,252 -255,396 -255,396 -255,402 -249,408 -243,408"/>
<text text-anchor="middle" x="-196" y="255.2" font-family="Times,serif" font-size="14.00">FeaturesController</text>
<polyline fill="none" stroke="black" points="-255,263 -137,263 "/>
<text text-anchor="start" x="-247" y="278.2" font-family="Times,serif" font-size="14.00">create</text>
<text text-anchor="start" x="-247" y="293.2" font-family="Times,serif" font-size="14.00">destroy</text>
<text text-anchor="start" x="-247" y="308.2" font-family="Times,serif" font-size="14.00">index</text>
<text text-anchor="start" x="-247" y="323.2" font-family="Times,serif" font-size="14.00">show</text>
<text text-anchor="start" x="-247" y="338.2" font-family="Times,serif" font-size="14.00">update</text>
<polyline fill="none" stroke="black" points="-255,346 -137,346 "/>
<polyline fill="none" stroke="black" points="-255,370 -137,370 "/>
<text text-anchor="start" x="-247" y="385.2" font-family="Times,serif" font-size="14.00">feature_params</text>
<text text-anchor="start" x="-247" y="400.2" font-family="Times,serif" font-size="14.00">set_feature</text>
</g>
<!-- UsersController -->
<g id="node19" class="node"><title>UsersController</title>
<path fill="none" stroke="black" d="M-260,-0C-260,-0 -130,-0 -130,-0 -124,-0 -118,-6 -118,-12 -118,-12 -118,-156 -118,-156 -118,-162 -124,-168 -130,-168 -130,-168 -260,-168 -260,-168 -266,-168 -272,-162 -272,-156 -272,-156 -272,-12 -272,-12 -272,-6 -266,-0 -260,-0"/>
<text text-anchor="middle" x="-195" y="-152.8" font-family="Times,serif" font-size="14.00">UsersController</text>
<polyline fill="none" stroke="black" points="-272,-145 -118,-145 "/>
<text text-anchor="start" x="-264" y="-129.8" font-family="Times,serif" font-size="14.00">create</text>
<text text-anchor="start" x="-264" y="-114.8" font-family="Times,serif" font-size="14.00">destroy</text>
<text text-anchor="start" x="-264" y="-99.8" font-family="Times,serif" font-size="14.00">index</text>
<text text-anchor="start" x="-264" y="-84.8" font-family="Times,serif" font-size="14.00">show</text>
<text text-anchor="start" x="-264" y="-69.8" font-family="Times,serif" font-size="14.00">update</text>
<polyline fill="none" stroke="black" points="-272,-62 -118,-62 "/>
<polyline fill="none" stroke="black" points="-272,-38 -118,-38 "/>
<text text-anchor="start" x="-264" y="-22.8" font-family="Times,serif" font-size="14.00">user_params</text>
<text text-anchor="start" x="-264" y="-7.8" font-family="Times,serif" font-size="14.00">user_params_create_new</text>
</g>
<!-- JobsController -->
<g id="node20" class="node"><title>JobsController</title>
<path fill="none" stroke="black" d="M437,425C437,425 509,425 509,425 515,425 521,419 521,413 521,413 521,269 521,269 521,263 515,257 509,257 509,257 437,257 437,257 431,257 425,263 425,269 425,269 425,413 425,413 425,419 431,425 437,425"/>
<text text-anchor="middle" x="473" y="272.2" font-family="Times,serif" font-size="14.00">JobsController</text>
<polyline fill="none" stroke="black" points="425,280 521,280 "/>
<text text-anchor="start" x="433" y="295.2" font-family="Times,serif" font-size="14.00">create</text>
<text text-anchor="start" x="433" y="310.2" font-family="Times,serif" font-size="14.00">destroy</text>
<text text-anchor="start" x="433" y="325.2" font-family="Times,serif" font-size="14.00">index</text>
<text text-anchor="start" x="433" y="340.2" font-family="Times,serif" font-size="14.00">show</text>
<text text-anchor="start" x="433" y="355.2" font-family="Times,serif" font-size="14.00">update</text>
<polyline fill="none" stroke="black" points="425,363 521,363 "/>
<polyline fill="none" stroke="black" points="425,387 521,387 "/>
<text text-anchor="start" x="433" y="402.2" font-family="Times,serif" font-size="14.00">job_params</text>
<text text-anchor="start" x="433" y="417.2" font-family="Times,serif" font-size="14.00">set_job</text>
</g>
<!-- UsergroupsController -->
<g id="node21" class="node"><title>UsergroupsController</title>
<path fill="none" stroke="black" d="M131,-323C131,-323 241,-323 241,-323 247,-323 253,-329 253,-335 253,-335 253,-479 253,-479 253,-485 247,-491 241,-491 241,-491 131,-491 131,-491 125,-491 119,-485 119,-479 119,-479 119,-335 119,-335 119,-329 125,-323 131,-323"/>
<text text-anchor="middle" x="186" y="-475.8" font-family="Times,serif" font-size="14.00">UsergroupsController</text>
<polyline fill="none" stroke="black" points="119,-468 253,-468 "/>
<text text-anchor="start" x="127" y="-452.8" font-family="Times,serif" font-size="14.00">create</text>
<text text-anchor="start" x="127" y="-437.8" font-family="Times,serif" font-size="14.00">destroy</text>
<text text-anchor="start" x="127" y="-422.8" font-family="Times,serif" font-size="14.00">index</text>
<text text-anchor="start" x="127" y="-407.8" font-family="Times,serif" font-size="14.00">show</text>
<text text-anchor="start" x="127" y="-392.8" font-family="Times,serif" font-size="14.00">update</text>
<polyline fill="none" stroke="black" points="119,-385 253,-385 "/>
<polyline fill="none" stroke="black" points="119,-361 253,-361 "/>
<text text-anchor="start" x="127" y="-345.8" font-family="Times,serif" font-size="14.00">set_usergroup</text>
<text text-anchor="start" x="127" y="-330.8" font-family="Times,serif" font-size="14.00">usergroup_params</text>
</g>
</g>
</svg>
