<?xml version="1.0" encoding="UTF-8" standalone="no"?>
<!DOCTYPE svg PUBLIC "-//W3C//DTD SVG 1.1//EN"
 "http://www.w3.org/Graphics/SVG/1.1/DTD/svg11.dtd">
<!-- Generated by graphviz version 2.38.0 (20140413.2041)
 -->
<!-- Title: models_diagram Pages: 1 -->
<svg width="4414pt" height="423pt"
 viewBox="0.00 0.00 4414.00 423.00" xmlns="http://www.w3.org/2000/svg" xmlns:xlink="http://www.w3.org/1999/xlink">
<g id="graph0" class="graph" transform="scale(1 1) rotate(0) translate(4 419)">
<title>models_diagram</title>
<polygon fill="none" stroke="none" points="-4,4 -4,-419 4410,-419 4410,4 -4,4"/>
<!-- _diagram_info -->
<g id="node1" class="node"><title>_diagram_info</title>
<text text-anchor="start" x="8" y="-341.1" font-family="Times,serif" font-size="13.00">Models diagram</text>
<text text-anchor="start" x="8" y="-327.1" font-family="Times,serif" font-size="13.00">Date: Mar 29 2016 &#45; 01:48</text>
<text text-anchor="start" x="8" y="-313.1" font-family="Times,serif" font-size="13.00">Migration version: 20160328183457</text>
<text text-anchor="start" x="8" y="-299.1" font-family="Times,serif" font-size="13.00">Generated by RailRoady 1.4.2</text>
<text text-anchor="start" x="8" y="-285.1" font-family="Times,serif" font-size="13.00">http://railroady.prestonlee.com</text>
</g>
<!-- Job -->
<g id="node2" class="node"><title>Job</title>
<path fill="none" stroke="black" d="M244,-256C244,-256 464,-256 464,-256 470,-256 476,-262 476,-268 476,-268 476,-365 476,-365 476,-371 470,-377 464,-377 464,-377 244,-377 244,-377 238,-377 232,-371 232,-365 232,-365 232,-268 232,-268 232,-262 238,-256 244,-256"/>
<text text-anchor="middle" x="354" y="-361.8" font-family="Times,serif" font-size="14.00">Job</text>
<polyline fill="none" stroke="black" points="232,-354 476,-354 "/>
<text text-anchor="start" x="240" y="-338.8" font-family="Times,serif" font-size="14.00">id :integer</text>
<text text-anchor="start" x="240" y="-323.8" font-family="Times,serif" font-size="14.00">title :character varying</text>
<text text-anchor="start" x="240" y="-308.8" font-family="Times,serif" font-size="14.00">level :integer</text>
<text text-anchor="start" x="240" y="-293.8" font-family="Times,serif" font-size="14.00">description :text</text>
<text text-anchor="start" x="240" y="-278.8" font-family="Times,serif" font-size="14.00">created_at :timestamp without time zone</text>
<text text-anchor="start" x="240" y="-263.8" font-family="Times,serif" font-size="14.00">updated_at :timestamp without time zone</text>
</g>
<!-- Employee -->
<g id="node3" class="node"><title>Employee</title>
<path fill="none" stroke="black" d="M506,-218.5C506,-218.5 726,-218.5 726,-218.5 732,-218.5 738,-224.5 738,-230.5 738,-230.5 738,-402.5 738,-402.5 738,-408.5 732,-414.5 726,-414.5 726,-414.5 506,-414.5 506,-414.5 500,-414.5 494,-408.5 494,-402.5 494,-402.5 494,-230.5 494,-230.5 494,-224.5 500,-218.5 506,-218.5"/>
<text text-anchor="middle" x="616" y="-399.3" font-family="Times,serif" font-size="14.00">Employee</text>
<polyline fill="none" stroke="black" points="494,-391.5 738,-391.5 "/>
<text text-anchor="start" x="502" y="-376.3" font-family="Times,serif" font-size="14.00">id :integer</text>
<text text-anchor="start" x="502" y="-361.3" font-family="Times,serif" font-size="14.00">user_id :integer</text>
<text text-anchor="start" x="502" y="-346.3" font-family="Times,serif" font-size="14.00">name :character varying</text>
<text text-anchor="start" x="502" y="-331.3" font-family="Times,serif" font-size="14.00">created_at :timestamp without time zone</text>
<text text-anchor="start" x="502" y="-316.3" font-family="Times,serif" font-size="14.00">updated_at :timestamp without time zone</text>
<text text-anchor="start" x="502" y="-301.3" font-family="Times,serif" font-size="14.00">gender :character varying</text>
<text text-anchor="start" x="502" y="-286.3" font-family="Times,serif" font-size="14.00">phone :character varying</text>
<text text-anchor="start" x="502" y="-271.3" font-family="Times,serif" font-size="14.00">rfidcard_id :integer</text>
<text text-anchor="start" x="502" y="-256.3" font-family="Times,serif" font-size="14.00">description :text</text>
<text text-anchor="start" x="502" y="-241.3" font-family="Times,serif" font-size="14.00">job_id :integer</text>
<text text-anchor="start" x="502" y="-226.3" font-family="Times,serif" font-size="14.00">department_id :integer</text>
</g>
<!-- Floor -->
<g id="node4" class="node"><title>Floor</title>
<path fill="none" stroke="black" d="M768,-263.5C768,-263.5 988,-263.5 988,-263.5 994,-263.5 1000,-269.5 1000,-275.5 1000,-275.5 1000,-357.5 1000,-357.5 1000,-363.5 994,-369.5 988,-369.5 988,-369.5 768,-369.5 768,-369.5 762,-369.5 756,-363.5 756,-357.5 756,-357.5 756,-275.5 756,-275.5 756,-269.5 762,-263.5 768,-263.5"/>
<text text-anchor="middle" x="878" y="-354.3" font-family="Times,serif" font-size="14.00">Floor</text>
<polyline fill="none" stroke="black" points="756,-346.5 1000,-346.5 "/>
<text text-anchor="start" x="764" y="-331.3" font-family="Times,serif" font-size="14.00">id :integer</text>
<text text-anchor="start" x="764" y="-316.3" font-family="Times,serif" font-size="14.00">name :text</text>
<text text-anchor="start" x="764" y="-301.3" font-family="Times,serif" font-size="14.00">description :text</text>
<text text-anchor="start" x="764" y="-286.3" font-family="Times,serif" font-size="14.00">created_at :timestamp without time zone</text>
<text text-anchor="start" x="764" y="-271.3" font-family="Times,serif" font-size="14.00">updated_at :timestamp without time zone</text>
</g>
<!-- Room -->
<g id="node12" class="node"><title>Room</title>
<path fill="none" stroke="black" d="M899,-0.5C899,-0.5 1119,-0.5 1119,-0.5 1125,-0.5 1131,-6.5 1131,-12.5 1131,-12.5 1131,-169.5 1131,-169.5 1131,-175.5 1125,-181.5 1119,-181.5 1119,-181.5 899,-181.5 899,-181.5 893,-181.5 887,-175.5 887,-169.5 887,-169.5 887,-12.5 887,-12.5 887,-6.5 893,-0.5 899,-0.5"/>
<text text-anchor="middle" x="1009" y="-166.3" font-family="Times,serif" font-size="14.00">Room</text>
<polyline fill="none" stroke="black" points="887,-158.5 1131,-158.5 "/>
<text text-anchor="start" x="895" y="-143.3" font-family="Times,serif" font-size="14.00">id :integer</text>
<text text-anchor="start" x="895" y="-128.3" font-family="Times,serif" font-size="14.00">no :character varying</text>
<text text-anchor="start" x="895" y="-113.3" font-family="Times,serif" font-size="14.00">name :character varying</text>
<text text-anchor="start" x="895" y="-98.3" font-family="Times,serif" font-size="14.00">status :integer</text>
<text text-anchor="start" x="895" y="-83.3" font-family="Times,serif" font-size="14.00">description :text</text>
<text text-anchor="start" x="895" y="-68.3" font-family="Times,serif" font-size="14.00">created_at :timestamp without time zone</text>
<text text-anchor="start" x="895" y="-53.3" font-family="Times,serif" font-size="14.00">updated_at :timestamp without time zone</text>
<text text-anchor="start" x="895" y="-38.3" font-family="Times,serif" font-size="14.00">floor_id :integer</text>
<text text-anchor="start" x="895" y="-23.3" font-family="Times,serif" font-size="14.00">roomtype_id :integer</text>
<text text-anchor="start" x="895" y="-8.3" font-family="Times,serif" font-size="14.00">device_id :integer</text>
</g>
<!-- Floor&#45;&gt;Room -->
<g id="edge1" class="edge"><title>Floor&#45;&gt;Room</title>
<path fill="none" stroke="#d8a4ba" d="M912.624,-256.427C924.432,-236.282 937.976,-213.174 951.107,-190.772"/>
<ellipse fill="none" stroke="#d8a4ba" cx="910.571" cy="-259.93" rx="4.00002" ry="4.00002"/>
<polygon fill="#d8a4ba" stroke="#d8a4ba" points="951.252,-190.524 960.191,-184.173 953.78,-186.211 956.309,-181.897 956.309,-181.897 956.309,-181.897 953.78,-186.211 952.426,-179.622 951.252,-190.524 951.252,-190.524"/>
</g>
<!-- Department -->
<g id="node5" class="node"><title>Department</title>
<path fill="none" stroke="black" d="M1292,-256C1292,-256 1512,-256 1512,-256 1518,-256 1524,-262 1524,-268 1524,-268 1524,-365 1524,-365 1524,-371 1518,-377 1512,-377 1512,-377 1292,-377 1292,-377 1286,-377 1280,-371 1280,-365 1280,-365 1280,-268 1280,-268 1280,-262 1286,-256 1292,-256"/>
<text text-anchor="middle" x="1402" y="-361.8" font-family="Times,serif" font-size="14.00">Department</text>
<polyline fill="none" stroke="black" points="1280,-354 1524,-354 "/>
<text text-anchor="start" x="1288" y="-338.8" font-family="Times,serif" font-size="14.00">id :integer</text>
<text text-anchor="start" x="1288" y="-323.8" font-family="Times,serif" font-size="14.00">name :character varying</text>
<text text-anchor="start" x="1288" y="-308.8" font-family="Times,serif" font-size="14.00">description :text</text>
<text text-anchor="start" x="1288" y="-293.8" font-family="Times,serif" font-size="14.00">totalemployees :integer</text>
<text text-anchor="start" x="1288" y="-278.8" font-family="Times,serif" font-size="14.00">created_at :timestamp without time zone</text>
<text text-anchor="start" x="1288" y="-263.8" font-family="Times,serif" font-size="14.00">updated_at :timestamp without time zone</text>
</g>
<!-- Service -->
<g id="node6" class="node"><title>Service</title>
<path fill="none" stroke="black" d="M1554,-248.5C1554,-248.5 1774,-248.5 1774,-248.5 1780,-248.5 1786,-254.5 1786,-260.5 1786,-260.5 1786,-372.5 1786,-372.5 1786,-378.5 1780,-384.5 1774,-384.5 1774,-384.5 1554,-384.5 1554,-384.5 1548,-384.5 1542,-378.5 1542,-372.5 1542,-372.5 1542,-260.5 1542,-260.5 1542,-254.5 1548,-248.5 1554,-248.5"/>
<text text-anchor="middle" x="1664" y="-369.3" font-family="Times,serif" font-size="14.00">Service</text>
<polyline fill="none" stroke="black" points="1542,-361.5 1786,-361.5 "/>
<text text-anchor="start" x="1550" y="-346.3" font-family="Times,serif" font-size="14.00">id :integer</text>
<text text-anchor="start" x="1550" y="-331.3" font-family="Times,serif" font-size="14.00">name :character varying</text>
<text text-anchor="start" x="1550" y="-316.3" font-family="Times,serif" font-size="14.00">code :character varying</text>
<text text-anchor="start" x="1550" y="-301.3" font-family="Times,serif" font-size="14.00">price :double precision</text>
<text text-anchor="start" x="1550" y="-286.3" font-family="Times,serif" font-size="14.00">description :text</text>
<text text-anchor="start" x="1550" y="-271.3" font-family="Times,serif" font-size="14.00">created_at :timestamp without time zone</text>
<text text-anchor="start" x="1550" y="-256.3" font-family="Times,serif" font-size="14.00">updated_at :timestamp without time zone</text>
</g>
<!-- Device -->
<g id="node7" class="node"><title>Device</title>
<path fill="none" stroke="black" d="M1816,-248.5C1816,-248.5 2036,-248.5 2036,-248.5 2042,-248.5 2048,-254.5 2048,-260.5 2048,-260.5 2048,-372.5 2048,-372.5 2048,-378.5 2042,-384.5 2036,-384.5 2036,-384.5 1816,-384.5 1816,-384.5 1810,-384.5 1804,-378.5 1804,-372.5 1804,-372.5 1804,-260.5 1804,-260.5 1804,-254.5 1810,-248.5 1816,-248.5"/>
<text text-anchor="middle" x="1926" y="-369.3" font-family="Times,serif" font-size="14.00">Device</text>
<polyline fill="none" stroke="black" points="1804,-361.5 2048,-361.5 "/>
<text text-anchor="start" x="1812" y="-346.3" font-family="Times,serif" font-size="14.00">id :integer</text>
<text text-anchor="start" x="1812" y="-331.3" font-family="Times,serif" font-size="14.00">name :character varying</text>
<text text-anchor="start" x="1812" y="-316.3" font-family="Times,serif" font-size="14.00">ipaddress :character varying</text>
<text text-anchor="start" x="1812" y="-301.3" font-family="Times,serif" font-size="14.00">description :text</text>
<text text-anchor="start" x="1812" y="-286.3" font-family="Times,serif" font-size="14.00">user_id :integer</text>
<text text-anchor="start" x="1812" y="-271.3" font-family="Times,serif" font-size="14.00">created_at :timestamp without time zone</text>
<text text-anchor="start" x="1812" y="-256.3" font-family="Times,serif" font-size="14.00">updated_at :timestamp without time zone</text>
</g>
<!-- Feature -->
<g id="node8" class="node"><title>Feature</title>
<path fill="none" stroke="black" d="M2078,-256C2078,-256 2298,-256 2298,-256 2304,-256 2310,-262 2310,-268 2310,-268 2310,-365 2310,-365 2310,-371 2304,-377 2298,-377 2298,-377 2078,-377 2078,-377 2072,-377 2066,-371 2066,-365 2066,-365 2066,-268 2066,-268 2066,-262 2072,-256 2078,-256"/>
<text text-anchor="middle" x="2188" y="-361.8" font-family="Times,serif" font-size="14.00">Feature</text>
<polyline fill="none" stroke="black" points="2066,-354 2310,-354 "/>
<text text-anchor="start" x="2074" y="-338.8" font-family="Times,serif" font-size="14.00">id :integer</text>
<text text-anchor="start" x="2074" y="-323.8" font-family="Times,serif" font-size="14.00">namevn :character varying</text>
<text text-anchor="start" x="2074" y="-308.8" font-family="Times,serif" font-size="14.00">nameen :character varying</text>
<text text-anchor="start" x="2074" y="-293.8" font-family="Times,serif" font-size="14.00">description :text</text>
<text text-anchor="start" x="2074" y="-278.8" font-family="Times,serif" font-size="14.00">created_at :timestamp without time zone</text>
<text text-anchor="start" x="2074" y="-263.8" font-family="Times,serif" font-size="14.00">updated_at :timestamp without time zone</text>
</g>
<!-- Roomtype -->
<g id="node9" class="node"><title>Roomtype</title>
<path fill="none" stroke="black" d="M1030,-218.5C1030,-218.5 1250,-218.5 1250,-218.5 1256,-218.5 1262,-224.5 1262,-230.5 1262,-230.5 1262,-402.5 1262,-402.5 1262,-408.5 1256,-414.5 1250,-414.5 1250,-414.5 1030,-414.5 1030,-414.5 1024,-414.5 1018,-408.5 1018,-402.5 1018,-402.5 1018,-230.5 1018,-230.5 1018,-224.5 1024,-218.5 1030,-218.5"/>
<text text-anchor="middle" x="1140" y="-399.3" font-family="Times,serif" font-size="14.00">Roomtype</text>
<polyline fill="none" stroke="black" points="1018,-391.5 1262,-391.5 "/>
<text text-anchor="start" x="1026" y="-376.3" font-family="Times,serif" font-size="14.00">id :integer</text>
<text text-anchor="start" x="1026" y="-361.3" font-family="Times,serif" font-size="14.00">name :character varying</text>
<text text-anchor="start" x="1026" y="-346.3" font-family="Times,serif" font-size="14.00">namevn :character varying</text>
<text text-anchor="start" x="1026" y="-331.3" font-family="Times,serif" font-size="14.00">description :text</text>
<text text-anchor="start" x="1026" y="-316.3" font-family="Times,serif" font-size="14.00">base_rate :integer</text>
<text text-anchor="start" x="1026" y="-301.3" font-family="Times,serif" font-size="14.00">extra_rate :integer</text>
<text text-anchor="start" x="1026" y="-286.3" font-family="Times,serif" font-size="14.00">fullday_rate :integer</text>
<text text-anchor="start" x="1026" y="-271.3" font-family="Times,serif" font-size="14.00">night_rate :integer</text>
<text text-anchor="start" x="1026" y="-256.3" font-family="Times,serif" font-size="14.00">special_rate :integer</text>
<text text-anchor="start" x="1026" y="-241.3" font-family="Times,serif" font-size="14.00">created_at :timestamp without time zone</text>
<text text-anchor="start" x="1026" y="-226.3" font-family="Times,serif" font-size="14.00">updated_at :timestamp without time zone</text>
</g>
<!-- Roomtype&#45;&gt;Room -->
<g id="edge2" class="edge"><title>Roomtype&#45;&gt;Room</title>
<path fill="none" stroke="#cd5647" d="M1079.06,-211.532C1074.94,-204.493 1070.79,-197.413 1066.68,-190.404"/>
<ellipse fill="none" stroke="#cd5647" cx="1081.09" cy="-214.994" rx="4.00002" ry="4.00002"/>
<polygon fill="#cd5647" stroke="#cd5647" points="1066.56,-190.2 1065.38,-179.297 1064.03,-185.887 1061.5,-181.573 1061.5,-181.573 1061.5,-181.573 1064.03,-185.887 1057.62,-183.849 1066.56,-190.2 1066.56,-190.2"/>
</g>
<!-- Serviceorder -->
<g id="node10" class="node"><title>Serviceorder</title>
<path fill="none" stroke="black" d="M2340,-248.5C2340,-248.5 2560,-248.5 2560,-248.5 2566,-248.5 2572,-254.5 2572,-260.5 2572,-260.5 2572,-372.5 2572,-372.5 2572,-378.5 2566,-384.5 2560,-384.5 2560,-384.5 2340,-384.5 2340,-384.5 2334,-384.5 2328,-378.5 2328,-372.5 2328,-372.5 2328,-260.5 2328,-260.5 2328,-254.5 2334,-248.5 2340,-248.5"/>
<text text-anchor="middle" x="2450" y="-369.3" font-family="Times,serif" font-size="14.00">Serviceorder</text>
<polyline fill="none" stroke="black" points="2328,-361.5 2572,-361.5 "/>
<text text-anchor="start" x="2336" y="-346.3" font-family="Times,serif" font-size="14.00">id :integer</text>
<text text-anchor="start" x="2336" y="-331.3" font-family="Times,serif" font-size="14.00">quantity :integer</text>
<text text-anchor="start" x="2336" y="-316.3" font-family="Times,serif" font-size="14.00">description :text</text>
<text text-anchor="start" x="2336" y="-301.3" font-family="Times,serif" font-size="14.00">created_at :timestamp without time zone</text>
<text text-anchor="start" x="2336" y="-286.3" font-family="Times,serif" font-size="14.00">updated_at :timestamp without time zone</text>
<text text-anchor="start" x="2336" y="-271.3" font-family="Times,serif" font-size="14.00">guest_id :integer</text>
<text text-anchor="start" x="2336" y="-256.3" font-family="Times,serif" font-size="14.00">service_id :integer</text>
</g>
<!-- Checkinout -->
<g id="node11" class="node"><title>Checkinout</title>
<path fill="none" stroke="black" d="M2602,-263.5C2602,-263.5 2822,-263.5 2822,-263.5 2828,-263.5 2834,-269.5 2834,-275.5 2834,-275.5 2834,-357.5 2834,-357.5 2834,-363.5 2828,-369.5 2822,-369.5 2822,-369.5 2602,-369.5 2602,-369.5 2596,-369.5 2590,-363.5 2590,-357.5 2590,-357.5 2590,-275.5 2590,-275.5 2590,-269.5 2596,-263.5 2602,-263.5"/>
<text text-anchor="middle" x="2712" y="-354.3" font-family="Times,serif" font-size="14.00">Checkinout</text>
<polyline fill="none" stroke="black" points="2590,-346.5 2834,-346.5 "/>
<text text-anchor="start" x="2598" y="-331.3" font-family="Times,serif" font-size="14.00">id :integer</text>
<text text-anchor="start" x="2598" y="-316.3" font-family="Times,serif" font-size="14.00">created_at :timestamp without time zone</text>
<text text-anchor="start" x="2598" y="-301.3" font-family="Times,serif" font-size="14.00">updated_at :timestamp without time zone</text>
<text text-anchor="start" x="2598" y="-286.3" font-family="Times,serif" font-size="14.00">rfidcard_id :integer</text>
<text text-anchor="start" x="2598" y="-271.3" font-family="Times,serif" font-size="14.00">room_id :integer</text>
</g>
<!-- User -->
<g id="node13" class="node"><title>User</title>
<path fill="none" stroke="black" d="M2862.5,-8C2862.5,-8 3085.5,-8 3085.5,-8 3091.5,-8 3097.5,-14 3097.5,-20 3097.5,-20 3097.5,-162 3097.5,-162 3097.5,-168 3091.5,-174 3085.5,-174 3085.5,-174 2862.5,-174 2862.5,-174 2856.5,-174 2850.5,-168 2850.5,-162 2850.5,-162 2850.5,-20 2850.5,-20 2850.5,-14 2856.5,-8 2862.5,-8"/>
<text text-anchor="middle" x="2974" y="-158.8" font-family="Times,serif" font-size="14.00">User</text>
<polyline fill="none" stroke="black" points="2850.5,-151 3097.5,-151 "/>
<text text-anchor="start" x="2858.5" y="-135.8" font-family="Times,serif" font-size="14.00">id :integer</text>
<text text-anchor="start" x="2858.5" y="-120.8" font-family="Times,serif" font-size="14.00">username :character varying</text>
<text text-anchor="start" x="2858.5" y="-105.8" font-family="Times,serif" font-size="14.00">auth_token :character varying</text>
<text text-anchor="start" x="2858.5" y="-90.8" font-family="Times,serif" font-size="14.00">password :character varying</text>
<text text-anchor="start" x="2858.5" y="-75.8" font-family="Times,serif" font-size="14.00">password_confirmation :character varying</text>
<text text-anchor="start" x="2858.5" y="-60.8" font-family="Times,serif" font-size="14.00">password_digest :character varying</text>
<text text-anchor="start" x="2858.5" y="-45.8" font-family="Times,serif" font-size="14.00">created_at :timestamp without time zone</text>
<text text-anchor="start" x="2858.5" y="-30.8" font-family="Times,serif" font-size="14.00">updated_at :timestamp without time zone</text>
<text text-anchor="start" x="2858.5" y="-15.8" font-family="Times,serif" font-size="14.00">usergroup_id :integer</text>
</g>
<!-- Billing -->
<g id="node14" class="node"><title>Billing</title>
<path fill="none" stroke="black" d="M3126,-226C3126,-226 3346,-226 3346,-226 3352,-226 3358,-232 3358,-238 3358,-238 3358,-395 3358,-395 3358,-401 3352,-407 3346,-407 3346,-407 3126,-407 3126,-407 3120,-407 3114,-401 3114,-395 3114,-395 3114,-238 3114,-238 3114,-232 3120,-226 3126,-226"/>
<text text-anchor="middle" x="3236" y="-391.8" font-family="Times,serif" font-size="14.00">Billing</text>
<polyline fill="none" stroke="black" points="3114,-384 3358,-384 "/>
<text text-anchor="start" x="3122" y="-368.8" font-family="Times,serif" font-size="14.00">id :integer</text>
<text text-anchor="start" x="3122" y="-353.8" font-family="Times,serif" font-size="14.00">created_at :timestamp without time zone</text>
<text text-anchor="start" x="3122" y="-338.8" font-family="Times,serif" font-size="14.00">updated_at :timestamp without time zone</text>
<text text-anchor="start" x="3122" y="-323.8" font-family="Times,serif" font-size="14.00">valuevnd :double precision</text>
<text text-anchor="start" x="3122" y="-308.8" font-family="Times,serif" font-size="14.00">valueusd :double precision</text>
<text text-anchor="start" x="3122" y="-293.8" font-family="Times,serif" font-size="14.00">status :integer</text>
<text text-anchor="start" x="3122" y="-278.8" font-family="Times,serif" font-size="14.00">overtime :integer</text>
<text text-anchor="start" x="3122" y="-263.8" font-family="Times,serif" font-size="14.00">overvaluevnd :double precision</text>
<text text-anchor="start" x="3122" y="-248.8" font-family="Times,serif" font-size="14.00">overvalueusd :double precision</text>
<text text-anchor="start" x="3122" y="-233.8" font-family="Times,serif" font-size="14.00">guest_id :integer</text>
</g>
<!-- Booking -->
<g id="node15" class="node"><title>Booking</title>
<path fill="none" stroke="black" d="M3388,-256C3388,-256 3608,-256 3608,-256 3614,-256 3620,-262 3620,-268 3620,-268 3620,-365 3620,-365 3620,-371 3614,-377 3608,-377 3608,-377 3388,-377 3388,-377 3382,-377 3376,-371 3376,-365 3376,-365 3376,-268 3376,-268 3376,-262 3382,-256 3388,-256"/>
<text text-anchor="middle" x="3498" y="-361.8" font-family="Times,serif" font-size="14.00">Booking</text>
<polyline fill="none" stroke="black" points="3376,-354 3620,-354 "/>
<text text-anchor="start" x="3384" y="-338.8" font-family="Times,serif" font-size="14.00">id :integer</text>
<text text-anchor="start" x="3384" y="-323.8" font-family="Times,serif" font-size="14.00">created_at :timestamp without time zone</text>
<text text-anchor="start" x="3384" y="-308.8" font-family="Times,serif" font-size="14.00">updated_at :timestamp without time zone</text>
<text text-anchor="start" x="3384" y="-293.8" font-family="Times,serif" font-size="14.00">status :integer</text>
<text text-anchor="start" x="3384" y="-278.8" font-family="Times,serif" font-size="14.00">room_id :integer</text>
<text text-anchor="start" x="3384" y="-263.8" font-family="Times,serif" font-size="14.00">guest_id :integer</text>
</g>
<!-- Guest -->
<g id="node16" class="node"><title>Guest</title>
<path fill="none" stroke="black" d="M3650,-218.5C3650,-218.5 3870,-218.5 3870,-218.5 3876,-218.5 3882,-224.5 3882,-230.5 3882,-230.5 3882,-402.5 3882,-402.5 3882,-408.5 3876,-414.5 3870,-414.5 3870,-414.5 3650,-414.5 3650,-414.5 3644,-414.5 3638,-408.5 3638,-402.5 3638,-402.5 3638,-230.5 3638,-230.5 3638,-224.5 3644,-218.5 3650,-218.5"/>
<text text-anchor="middle" x="3760" y="-399.3" font-family="Times,serif" font-size="14.00">Guest</text>
<polyline fill="none" stroke="black" points="3638,-391.5 3882,-391.5 "/>
<text text-anchor="start" x="3646" y="-376.3" font-family="Times,serif" font-size="14.00">id :integer</text>
<text text-anchor="start" x="3646" y="-361.3" font-family="Times,serif" font-size="14.00">name :character varying</text>
<text text-anchor="start" x="3646" y="-346.3" font-family="Times,serif" font-size="14.00">phone :character varying</text>
<text text-anchor="start" x="3646" y="-331.3" font-family="Times,serif" font-size="14.00">guesttype :integer</text>
<text text-anchor="start" x="3646" y="-316.3" font-family="Times,serif" font-size="14.00">count :integer</text>
<text text-anchor="start" x="3646" y="-301.3" font-family="Times,serif" font-size="14.00">nationality :character varying</text>
<text text-anchor="start" x="3646" y="-286.3" font-family="Times,serif" font-size="14.00">description :text</text>
<text text-anchor="start" x="3646" y="-271.3" font-family="Times,serif" font-size="14.00">cstidno :character varying</text>
<text text-anchor="start" x="3646" y="-256.3" font-family="Times,serif" font-size="14.00">user_id :integer</text>
<text text-anchor="start" x="3646" y="-241.3" font-family="Times,serif" font-size="14.00">created_at :timestamp without time zone</text>
<text text-anchor="start" x="3646" y="-226.3" font-family="Times,serif" font-size="14.00">updated_at :timestamp without time zone</text>
</g>
<!-- Guestdetail -->
<g id="node17" class="node"><title>Guestdetail</title>
<path fill="none" stroke="black" d="M3650,-8C3650,-8 3870,-8 3870,-8 3876,-8 3882,-14 3882,-20 3882,-20 3882,-162 3882,-162 3882,-168 3876,-174 3870,-174 3870,-174 3650,-174 3650,-174 3644,-174 3638,-168 3638,-162 3638,-162 3638,-20 3638,-20 3638,-14 3644,-8 3650,-8"/>
<text text-anchor="middle" x="3760" y="-158.8" font-family="Times,serif" font-size="14.00">Guestdetail</text>
<polyline fill="none" stroke="black" points="3638,-151 3882,-151 "/>
<text text-anchor="start" x="3646" y="-135.8" font-family="Times,serif" font-size="14.00">id :integer</text>
<text text-anchor="start" x="3646" y="-120.8" font-family="Times,serif" font-size="14.00">created_at :timestamp without time zone</text>
<text text-anchor="start" x="3646" y="-105.8" font-family="Times,serif" font-size="14.00">updated_at :timestamp without time zone</text>
<text text-anchor="start" x="3646" y="-90.8" font-family="Times,serif" font-size="14.00">prepaidmoney :double precision</text>
<text text-anchor="start" x="3646" y="-75.8" font-family="Times,serif" font-size="14.00">creditcard :character varying</text>
<text text-anchor="start" x="3646" y="-60.8" font-family="Times,serif" font-size="14.00">guest_id :integer</text>
<text text-anchor="start" x="3646" y="-45.8" font-family="Times,serif" font-size="14.00">description :text</text>
<text text-anchor="start" x="3646" y="-30.8" font-family="Times,serif" font-size="14.00">billing_id :integer</text>
<text text-anchor="start" x="3646" y="-15.8" font-family="Times,serif" font-size="14.00">serviceorder_id :integer</text>
</g>
<!-- Guest&#45;&gt;Guestdetail -->
<g id="edge3" class="edge"><title>Guest&#45;&gt;Guestdetail</title>
<path fill="none" stroke="#ef5c13" d="M3760,-210.132C3760,-200.82 3760,-191.448 3760,-182.277"/>
<ellipse fill="none" stroke="#ef5c13" cx="3760" cy="-214.445" rx="4" ry="4"/>
<ellipse fill="#ef5c13" stroke="#ef5c13" cx="3760" cy="-178.275" rx="4" ry="4"/>
</g>
<!-- Permission -->
<g id="node18" class="node"><title>Permission</title>
<path fill="none" stroke="black" d="M3912,-256C3912,-256 4132,-256 4132,-256 4138,-256 4144,-262 4144,-268 4144,-268 4144,-365 4144,-365 4144,-371 4138,-377 4132,-377 4132,-377 3912,-377 3912,-377 3906,-377 3900,-371 3900,-365 3900,-365 3900,-268 3900,-268 3900,-262 3906,-256 3912,-256"/>
<text text-anchor="middle" x="4022" y="-361.8" font-family="Times,serif" font-size="14.00">Permission</text>
<polyline fill="none" stroke="black" points="3900,-354 4144,-354 "/>
<text text-anchor="start" x="3908" y="-338.8" font-family="Times,serif" font-size="14.00">id :integer</text>
<text text-anchor="start" x="3908" y="-323.8" font-family="Times,serif" font-size="14.00">usergroup_id :integer</text>
<text text-anchor="start" x="3908" y="-308.8" font-family="Times,serif" font-size="14.00">feature_id :integer</text>
<text text-anchor="start" x="3908" y="-293.8" font-family="Times,serif" font-size="14.00">description :text</text>
<text text-anchor="start" x="3908" y="-278.8" font-family="Times,serif" font-size="14.00">created_at :timestamp without time zone</text>
<text text-anchor="start" x="3908" y="-263.8" font-family="Times,serif" font-size="14.00">updated_at :timestamp without time zone</text>
</g>
<!-- Usergroup -->
<g id="node19" class="node"><title>Usergroup</title>
<path fill="none" stroke="black" d="M2864,-263.5C2864,-263.5 3084,-263.5 3084,-263.5 3090,-263.5 3096,-269.5 3096,-275.5 3096,-275.5 3096,-357.5 3096,-357.5 3096,-363.5 3090,-369.5 3084,-369.5 3084,-369.5 2864,-369.5 2864,-369.5 2858,-369.5 2852,-363.5 2852,-357.5 2852,-357.5 2852,-275.5 2852,-275.5 2852,-269.5 2858,-263.5 2864,-263.5"/>
<text text-anchor="middle" x="2974" y="-354.3" font-family="Times,serif" font-size="14.00">Usergroup</text>
<polyline fill="none" stroke="black" points="2852,-346.5 3096,-346.5 "/>
<text text-anchor="start" x="2860" y="-331.3" font-family="Times,serif" font-size="14.00">id :integer</text>
<text text-anchor="start" x="2860" y="-316.3" font-family="Times,serif" font-size="14.00">name :character varying</text>
<text text-anchor="start" x="2860" y="-301.3" font-family="Times,serif" font-size="14.00">description :text</text>
<text text-anchor="start" x="2860" y="-286.3" font-family="Times,serif" font-size="14.00">created_at :timestamp without time zone</text>
<text text-anchor="start" x="2860" y="-271.3" font-family="Times,serif" font-size="14.00">updated_at :timestamp without time zone</text>
</g>
<!-- Usergroup&#45;&gt;User -->
<g id="edge4" class="edge"><title>Usergroup&#45;&gt;User</title>
<path fill="none" stroke="#0ea3e7" d="M2974,-255.098C2974,-233.27 2974,-208.101 2974,-184.17"/>
<ellipse fill="none" stroke="#0ea3e7" cx="2974" cy="-259.381" rx="4" ry="4"/>
<polygon fill="#0ea3e7" stroke="#0ea3e7" points="2974,-184.002 2978.5,-174.002 2974,-179.002 2974,-174.002 2974,-174.002 2974,-174.002 2974,-179.002 2969.5,-174.002 2974,-184.002 2974,-184.002"/>
</g>
<!-- Rfidcard -->
<g id="node20" class="node"><title>Rfidcard</title>
<path fill="none" stroke="black" d="M4174,-256C4174,-256 4394,-256 4394,-256 4400,-256 4406,-262 4406,-268 4406,-268 4406,-365 4406,-365 4406,-371 4400,-377 4394,-377 4394,-377 4174,-377 4174,-377 4168,-377 4162,-371 4162,-365 4162,-365 4162,-268 4162,-268 4162,-262 4168,-256 4174,-256"/>
<text text-anchor="middle" x="4284" y="-361.8" font-family="Times,serif" font-size="14.00">Rfidcard</text>
<polyline fill="none" stroke="black" points="4162,-354 4406,-354 "/>
<text text-anchor="start" x="4170" y="-338.8" font-family="Times,serif" font-size="14.00">id :integer</text>
<text text-anchor="start" x="4170" y="-323.8" font-family="Times,serif" font-size="14.00">name :character varying</text>
<text text-anchor="start" x="4170" y="-308.8" font-family="Times,serif" font-size="14.00">description :text</text>
<text text-anchor="start" x="4170" y="-293.8" font-family="Times,serif" font-size="14.00">created_at :timestamp without time zone</text>
<text text-anchor="start" x="4170" y="-278.8" font-family="Times,serif" font-size="14.00">updated_at :timestamp without time zone</text>
<text text-anchor="start" x="4170" y="-263.8" font-family="Times,serif" font-size="14.00">room_id :integer</text>
</g>
</g>
</svg>
